{
	"fec4e3ac93ccf76133ad718a1bf855753769f8949cb2e34b47364ce8057cbd59":62500000000000000,
	"b225b7e1e8081e6be1ad831ed68941c867067307774d3159e148176d89fb3544":62500000000000000,
	"1f5ba459ddf2d3e5d71cecc111769270e8ef1c97d5262d4dc87b6d28d0993518":62500000000000000,
	"9bd30199e2448b657a0442eb7123d8ffb1cf83fcd5c25ee6d679447abf11725f":62500000000000000,
	"b0c7d7dc30d051e841bd458ce5ba1afcbb38712e236b83bc87cc222733a37c0a":62500000000000000,
	"822ef8a6421ad1a694795d0843c09a2228bad63f4ec7c4ee6dbe025726d2ad02":62500000000000000,
	"84c9770a6f93aee8a9a1b80eadcaf87750ab5633e0593e566e3b45e4726d7a46":62500000000000000,
	"8c7d59628e3601b354dc9c582a55399d0570a76fe3d7d5dd9caa145c4ee9653a":62500000000000000,
	"727d1ca1b7980ef6981bbb519f604b249b97b98f55ba6ce7c1e0e9888dfa183a":62500000000000000,
	"ecb8b0c126a2fa914851918125f338f39b93f5826b6e8bd2a992901a2ab3cd26":62500000000000000,
	"339098d0efc9830d9b6d9567a93d16f77d804c94fcf352e26452241023a64c3a":62500000000000000,
	"cb8aac70db8b001523ef8b6f16578206c23bca1dfc5dcb546a64c1a82ef0e700":62500000000000000,
	"03214546c1e3c168193b207ef2e0564d5e1e562602aaf7858ea368d1091bee20":62500000000000000,
	"ecea17a20ca6e3c5fafacac09549590f2c4207458996bf10788db69bef8b5669":62500000000000000,
	"2e9b2dd0e5680527ca08f269ae9d8c4dcd3646f790e707508d0c37b3aab55017":62500000000000000,
	"7c9bd8ac4d41c863064875c29cd52185b132877f6f62b94dd036f5562e177e51":62499980000000000,
	"65d2d6dcbedaabe2de5aba4355c3820bae0d3543ae51f8972624343f3c8f424f":5000000000,
	"c2ed6520f0551112b80a4ac0a5e969672786a0e295adc2d807ebf8f1213d553b":5000000000,
	"dd47549754cfc9e2b01840c352ea3a943877a1e7369b19a8552717c4cb3dff34":5000000000,
	"d54ddeed8b2abae113e8df3eef4eee25134617256ca192c3208dff4c781d5551":5000000000,
	"af9e2d4362433dcfc70f696bab44e3453ad60adafe2c6881d98f6f79b7caad33":0,
	"a105c9b74900c3a8580bb9cf534f27839ed35e6c825e2defec4f63fa254c9373":0,
	"2e4881701c8994d760f9b725aac41c571a7f8eab8c339b6157ec6780bfdc6629":0,
	"fa5cf2b972ba07d125e40663c2368539d67cc7fb97389356164308feb9697534":0,
	"592aafec7661eb8553cae3d3892e352796dbab239eee0fd3510852875740c528":0
}


