{
	"cd64adaae934c33db347c865f25bfa9c3b822e65f42edb94912ffdacaeee2a69":100000000000000000,
	"22652a3891218324c3cc29bc9a68a5e4d6901e7f2b87f7c1c6aa615e8f641e62":100000000000000000,
	"a3d834b00d878db1124d3c94792819796bba407c46902410551a7b3da0fdd41b":100000000000000000,
	"c1a72279ba3f8f49ea194afe13c0c097b91a12df69e141afeaeca5628e94be63":100000000000000000,
	"7b21622824340f9cb3451b6212277541afe451765122f3f7218716fb764c5e08":100000000000000000,
	"250045b41ad5b39851ae2cf398c914a517fcc4ecb89379069e804513058cc11a":100000000000000000,
	"f918a1f968a6ac3f85541c03dabced29398ff222a202bd0c67f98109c9a9044e":100000000000000000,
	"7023928afb40226f948efcd539e5ee507e6003157169d80556abc0de685f6b20":100000000000000000,
	"4e4b048963abe4982797eeb0ebd4290f6c6b53befe2a69d42c4a3c2e91df5f46":100000000000000000,
	"70b6a1247b4bfe47a71f92af7782d976b20c097fd932135b060d117d25575440": 99999980000000000,
	"6cb96f40890b3d8351b303e8deb430c5e1c10ede3b31b3d68ee96fa40fdd5452":       10000000000,
	"1367bc76a0ef13db070aba9b04fb0d8c650cef803675a8caa60a3b427ba66805":       10000000000
}


