{
	"cd64adaae934c33db347c865f25bfa9c3b822e65f42edb94912ffdacaeee2a69":1000000000000000,
	"22652a3891218324c3cc29bc9a68a5e4d6901e7f2b87f7c1c6aa615e8f641e62":1000000000000000,
	"a3d834b00d878db1124d3c94792819796bba407c46902410551a7b3da0fdd41b":1000000000000000,
	"c1a72279ba3f8f49ea194afe13c0c097b91a12df69e141afeaeca5628e94be63":1000000000000000,
	"7b21622824340f9cb3451b6212277541afe451765122f3f7218716fb764c5e08":1000000000000000,
	"250045b41ad5b39851ae2cf398c914a517fcc4ecb89379069e804513058cc11a":1000000000000000,
	"f918a1f968a6ac3f85541c03dabced29398ff222a202bd0c67f98109c9a9044e":1000000000000000,
	"7023928afb40226f948efcd539e5ee507e6003157169d80556abc0de685f6b20":1000000000000000,
	"4e4b048963abe4982797eeb0ebd4290f6c6b53befe2a69d42c4a3c2e91df5f46":1000000000000000,
	"70b6a1247b4bfe47a71f92af7782d976b20c097fd932135b060d117d25575440": 999980000000000,
	"cd2c66d095f3dc380a309f46f994468db140d8c5ad26a502efa4fe1709d22877":     10000000000,
	"5ca91af20fcff8bf1d8c6465dc9c64ecc62da832a93ad2f1035f2f16c1914f54":     10000000000
}


