{
	"1c131d0cb08a9770c357dd020aefbcfca7031a1bec926408f2a912fa4383112b":62500000000000000,
	"748f467d4594a350be5c6d8b58775e02aae6e133fc1412ab9cfa339f051c9f7a":62500000000000000,
	"ed678bd596a2ff96265990f902a3215e96f2902df8c50164758205a83d96bb3f":62500000000000000,
	"53b1fbbd58abadc2645737d11156e5e8421ec116572608593e1b53cf456c0253":62500000000000000,
	"034e2e37c32c702fbcdd854f3e5bd3fa4e91867c0a30bdcb17f5c2e8543f4a7e":62500000000000000,
	"6b6b7caca1883ba2fac38efb3b81ed12f9767a71bc8fe23edef4cee40e53210f":62500000000000000,
	"27f50739f4020a3be2cccba281b5882e957c150cf520d3c91082e3d0713da216":62500000000000000,
	"df28e5700bbdc1fb50a53b6c2d06beb036affcdc306db836f476861fd81dbb66":62500000000000000,
	"24645cd5217c461cb7971ec8fd93c8bf8da8886dc88906f17ee7db17b91c3161":62500000000000000,
	"012ab360d1e422ad5e28b5f09b638d3356b695f246a6aec5b844ce1ae2331946":62500000000000000,
	"b6ccfbaa022401766fdf410c529f54baf8f3b47f32a4d4c3b49e30992d29740a":62500000000000000,
	"5ddd4885a94d809ecb72fe3415c7c0b59b2966d3fca68c94ab76404651e43449":62500000000000000,
	"083aaafe2fbb76febb5a165b147968191afd46600d73a170febdf18f3efcb06e":62500000000000000,
	"72104850f71b8333cfee7ffc08bafa6b34eb17ec10f04d5bdc68be33babd0e7c":62500000000000000,
	"ce421bb3f56aa92964d05caf59b1e15515db38d2df499b36f3edd1e0ccc4e556":62500000000000000,
	"8b3191c1e4f79f9df49e77d3d90760ec6dd0265078ea7271385bac84d28ad14b":62499980000000000,
	"4e46f788012bd9b85532354beffde1e46f677b3825e50ff4d158d35cdde2b176":5000000000,
	"88bd5a6130dde3939817720f6accd173eae25abf3cbae270441a6a6f9463455a":5000000000,
	"92d81410fc09383dc4a9933e74b7b0ad30001ecca9ebeb8328521e4dcebcf61b":5000000000,
	"a14d88ec63a702499ab1760eeb2e2cd1d34537d4d68a4061bda5b1b7ff4c1150":5000000000,
	"d524e1aea9435d2144dd49353cd5ceb3cd7ce58c755e888f08656afaf4fe6765":0,
	"e22363cd0cf5dbf327dca1e813a7339a3a87de6ebebc3b3685b38c4e46227241":0,
	"d288c0770ca78e3d89b50a38ace05525c36aed7f8e837c1ca487d8e50576a369":0,
	"ee8c8ba0a0ea47c6d5748260bec0e8ac65d44cb480721c93027bdba48e001870":0,
	"b6b6af15417dc4d60c87179279f8f1f1bd9971ecb0b6696f2cd625217915a13e":0
}


